1 10 20
100 200 125
201 210 89
100 200 125
538 123990 354
847348 784747 525
99828 123 351
2321 203 183
1 4829 238
28370 243200 443
23232 82714 351
2828 131239 354
2924 3238 199
999999 789879 525
53784 324872 443
98492 64378 351
72892 34879 340
628478 234892 509
983472 837439 525
983472 748387 525
398493 123233 443
238327 123112 443
1321 29383 308
38743 28347 324
987239 631312 525
424424 528479 470
983479 774827 525
299292 483479 449
10 4350 238
620 6300 262
20132 21013 256
9000 2001 262
538324 623990 452
547348 684747 509
89828 12332 351
5321 20332 279
124342 382922 443
238370 243200 368
43232 92714 351
28283 93123 351
64924 323823 443
898789 789879 525
213784 324872 443
788492 643724 504
643724 788492 504
324872 213784 443
789879 482798 509
989488 99999 525
424234 131321 449
213132 123123 383
1231 8237 262
2839 2312 209
1312 98798 351
987998 899999 507
83749 38472 351
938749 898793 476
83479 23487 351
284972 199098 443
38948 39287 275
384738 489874 449
343294 98798 443
783998 848974 525
3442 4879 238
4928 34879 311
43298 32898 324
3849 28473 308
494890 387433 449
384793 328722 441
28738 348799 443
90928 3847 351
38492 328 324
4892 34 238
347925 348799 335
34829 34892 174
342892 48786 443
233435 324882 407
342431 324229 384
238828 233828 381
31313 23231 308
2132 231231 443
13727 2781 276
989 1273 182
23187 23718 282
728 27 171
273188 271888 314
2371 23718 282
2892 34 209
147925 348799 443
24829 34892 311
542892 487862 470
133435 224882 386
842431 324229 525
638828 533828 509
21313 23231 269
1132 231231 443
53727 2781 340
589 2273 183
93187 83718 333
128 37 119
673188 571888 509
34232 234 308
12312 12312 38
